%YAML 1.1
%TAG !u! tag:unity3d.com,2011:
--- !u!21 &2100000
Material:
  serializedVersion: 8
  m_ObjectHideFlags: 0
  m_CorrespondingSourceObject: {fileID: 0}
  m_PrefabInstance: {fileID: 0}
  m_PrefabAsset: {fileID: 0}
  m_Name: M_VFX_Leaves_Premult
  m_Shader: {fileID: 4800000, guid: 71b5916d55060664bb15d239ed28e102, type: 3}
  m_Parent: {fileID: 0}
  m_ModifiedSerializedProperties: 0
  m_ValidKeywords: []
  m_InvalidKeywords: []
  m_LightmapFlags: 4
  m_EnableInstancingVariants: 0
  m_DoubleSidedGI: 0
  m_CustomRenderQueue: -1
  stringTagMap: {}
  disabledShaderPasses: []
  m_LockedProperties: 
  m_SavedProperties:
    serializedVersion: 3
    m_TexEnvs:
    - _ColorTexture:
        m_Texture: {fileID: 0}
        m_Scale: {x: 1, y: 1}
        m_Offset: {x: 0, y: 0}
    - _DissolveDirection:
        m_Texture: {fileID: 2800000, guid: cef0de28efd283043ba4327f91eddd91, type: 3}
        m_Scale: {x: 1, y: 1}
        m_Offset: {x: 0, y: 0}
    - _DissolveMask:
        m_Texture: {fileID: 2800000, guid: 1c5db15511bc3e1499d72c67970180f7, type: 3}
        m_Scale: {x: 0.5, y: 1}
        m_Offset: {x: 1, y: 0}
    - _DistortMask:
        m_Texture: {fileID: 2800000, guid: b659081b52948be47adb256ff3f9e34f, type: 3}
        m_Scale: {x: 1, y: 1}
        m_Offset: {x: 0, y: 0}
    - _GradientMap:
        m_Texture: {fileID: 0}
        m_Scale: {x: 1, y: 1}
        m_Offset: {x: 0, y: 0}
    - _GradientShape:
        m_Texture: {fileID: 0}
        m_Scale: {x: 1, y: 1}
        m_Offset: {x: 0, y: 0}
    - _StaticAlphaTexture:
        m_Texture: {fileID: 2800000, guid: 7579b8992ccf5124491219f77ea690a6, type: 3}
        m_Scale: {x: 1, y: 1}
        m_Offset: {x: 0, y: 0}
    - _Texture:
        m_Texture: {fileID: 2800000, guid: 78657ccb6874cc043944799f58a5fccc, type: 3}
        m_Scale: {x: 1, y: 1}
        m_Offset: {x: 0, y: 0}
    m_Ints: []
    m_Floats:
    - _AlphaBoldness: 1
    - _AlphaCutoff: 0.5
    - _Brightness: 1
    - _ColorRotation: 0
    - _CoreIntensity: 0
    - _CorePower: 0
    - _Cull: 0
    - _DepthFadeDivide: 1
    - _DifferentCoreColor: 0
    - _DissolveDirectionInvert: 0
    - _DissolveDirectionRotation: 0
    - _DissolveMaskInvert: 0
    - _DissolveMaskRotation: 0
    - _DistortMaskRotation: 0
    - _DistortionPower: 0.1
    - _Dst: 10
    - _FlatAlpha: 0
    - _FlatAlpha1: 0
    - _GradientMapDisplacement: 0
    - _GradientShapeRotation: 0
    - _InvertGradient: 0
    - _MoveWithTexture: 1
    - _Src: 5
    - _StaticAlphaInvert: 0
    - _StaticAlphaRotation: 0
    - _TextureRotation: 0
    - _UseDepthFade: 1
    - _ZTest: 2
    - _ZWrite: 0
    m_Colors:
    - _CoreColor: {r: 0, g: 0, b: 0, a: 0}
    - _DissolveDirectionChannel: {r: 1, g: 0, b: 0, a: 0}
    - _DissolveMaskChannel: {r: 0, g: 1, b: 0, a: 0}
    - _DissolveMaskPanSpeed: {r: 0, g: -0.125, b: 0, a: 0}
    - _DistortMaskChannel: {r: 0, g: 1, b: 0, a: 0}
    - _DistortPanSpeed: {r: 0, g: 0.3, b: 0, a: 0}
    - _EmissionColor: {r: 1, g: 1, b: 1, a: 1}
    - _GradientShapeChannel: {r: 0, g: 0, b: 0, a: 0}
    - _StaticAlphaChannel: {r: 0, g: 1, b: 0, a: 0}
    - _TextureChannel: {r: 0, g: 1, b: 0, a: 0}
  m_BuildTextureStacks: []
